-- Merging decision tree log ---
manifest
ADDED from /home/niroj/Downloads/Untitled Folder 2/FirstScreen/app/src/main/AndroidManifest.xml:2:1-22:12
	package
		ADDED from /home/niroj/Downloads/Untitled Folder 2/FirstScreen/app/src/main/AndroidManifest.xml:3:5-44
		INJECTED from /home/niroj/Downloads/Untitled Folder 2/FirstScreen/app/src/main/AndroidManifest.xml
		INJECTED from /home/niroj/Downloads/Untitled Folder 2/FirstScreen/app/src/main/AndroidManifest.xml
	android:versionName
		INJECTED from /home/niroj/Downloads/Untitled Folder 2/FirstScreen/app/src/main/AndroidManifest.xml
		INJECTED from /home/niroj/Downloads/Untitled Folder 2/FirstScreen/app/src/main/AndroidManifest.xml
	xmlns:android
		ADDED from /home/niroj/Downloads/Untitled Folder 2/FirstScreen/app/src/main/AndroidManifest.xml:2:11-69
	android:versionCode
		INJECTED from /home/niroj/Downloads/Untitled Folder 2/FirstScreen/app/src/main/AndroidManifest.xml
		INJECTED from /home/niroj/Downloads/Untitled Folder 2/FirstScreen/app/src/main/AndroidManifest.xml
application
ADDED from /home/niroj/Downloads/Untitled Folder 2/FirstScreen/app/src/main/AndroidManifest.xml:5:5-20:19
MERGED from [com.android.support:design:23.4.0] /home/niroj/Downloads/Untitled Folder 2/FirstScreen/app/build/intermediates/exploded-aar/com.android.support/design/23.4.0/AndroidManifest.xml:22:5-20
MERGED from [com.android.support:support-v4:23.4.0] /home/niroj/Downloads/Untitled Folder 2/FirstScreen/app/build/intermediates/exploded-aar/com.android.support/support-v4/23.4.0/AndroidManifest.xml:22:5-20
MERGED from [com.android.support:appcompat-v7:23.4.0] /home/niroj/Downloads/Untitled Folder 2/FirstScreen/app/build/intermediates/exploded-aar/com.android.support/appcompat-v7/23.4.0/AndroidManifest.xml:25:5-20
MERGED from [com.android.support:animated-vector-drawable:23.4.0] /home/niroj/Downloads/Untitled Folder 2/FirstScreen/app/build/intermediates/exploded-aar/com.android.support/animated-vector-drawable/23.4.0/AndroidManifest.xml:7:5-20
MERGED from [com.android.support:support-vector-drawable:23.4.0] /home/niroj/Downloads/Untitled Folder 2/FirstScreen/app/build/intermediates/exploded-aar/com.android.support/support-vector-drawable/23.4.0/AndroidManifest.xml:7:5-20
MERGED from [com.android.support:support-v4:23.4.0] /home/niroj/Downloads/Untitled Folder 2/FirstScreen/app/build/intermediates/exploded-aar/com.android.support/support-v4/23.4.0/AndroidManifest.xml:22:5-20
MERGED from [com.android.support:support-v4:23.4.0] /home/niroj/Downloads/Untitled Folder 2/FirstScreen/app/build/intermediates/exploded-aar/com.android.support/support-v4/23.4.0/AndroidManifest.xml:22:5-20
MERGED from [com.android.support:support-vector-drawable:23.4.0] /home/niroj/Downloads/Untitled Folder 2/FirstScreen/app/build/intermediates/exploded-aar/com.android.support/support-vector-drawable/23.4.0/AndroidManifest.xml:7:5-20
MERGED from [com.android.support:support-v4:23.4.0] /home/niroj/Downloads/Untitled Folder 2/FirstScreen/app/build/intermediates/exploded-aar/com.android.support/support-v4/23.4.0/AndroidManifest.xml:22:5-20
MERGED from [com.android.support:support-v4:23.4.0] /home/niroj/Downloads/Untitled Folder 2/FirstScreen/app/build/intermediates/exploded-aar/com.android.support/support-v4/23.4.0/AndroidManifest.xml:22:5-20
MERGED from [com.android.support:appcompat-v7:23.4.0] /home/niroj/Downloads/Untitled Folder 2/FirstScreen/app/build/intermediates/exploded-aar/com.android.support/appcompat-v7/23.4.0/AndroidManifest.xml:25:5-20
MERGED from [com.android.support:animated-vector-drawable:23.4.0] /home/niroj/Downloads/Untitled Folder 2/FirstScreen/app/build/intermediates/exploded-aar/com.android.support/animated-vector-drawable/23.4.0/AndroidManifest.xml:7:5-20
MERGED from [com.android.support:support-vector-drawable:23.4.0] /home/niroj/Downloads/Untitled Folder 2/FirstScreen/app/build/intermediates/exploded-aar/com.android.support/support-vector-drawable/23.4.0/AndroidManifest.xml:7:5-20
MERGED from [com.android.support:support-v4:23.4.0] /home/niroj/Downloads/Untitled Folder 2/FirstScreen/app/build/intermediates/exploded-aar/com.android.support/support-v4/23.4.0/AndroidManifest.xml:22:5-20
MERGED from [com.android.support:support-v4:23.4.0] /home/niroj/Downloads/Untitled Folder 2/FirstScreen/app/build/intermediates/exploded-aar/com.android.support/support-v4/23.4.0/AndroidManifest.xml:22:5-20
MERGED from [com.android.support:support-vector-drawable:23.4.0] /home/niroj/Downloads/Untitled Folder 2/FirstScreen/app/build/intermediates/exploded-aar/com.android.support/support-vector-drawable/23.4.0/AndroidManifest.xml:7:5-20
MERGED from [com.android.support:support-v4:23.4.0] /home/niroj/Downloads/Untitled Folder 2/FirstScreen/app/build/intermediates/exploded-aar/com.android.support/support-v4/23.4.0/AndroidManifest.xml:22:5-20
MERGED from [com.android.support:support-v4:23.4.0] /home/niroj/Downloads/Untitled Folder 2/FirstScreen/app/build/intermediates/exploded-aar/com.android.support/support-v4/23.4.0/AndroidManifest.xml:22:5-20
MERGED from [com.android.support:cardview-v7:23.1.1] /home/niroj/Downloads/Untitled Folder 2/FirstScreen/app/build/intermediates/exploded-aar/com.android.support/cardview-v7/23.1.1/AndroidManifest.xml:22:5-20
	android:label
		ADDED from /home/niroj/Downloads/Untitled Folder 2/FirstScreen/app/src/main/AndroidManifest.xml:8:9-41
	android:supportsRtl
		ADDED from /home/niroj/Downloads/Untitled Folder 2/FirstScreen/app/src/main/AndroidManifest.xml:9:9-35
	android:allowBackup
		ADDED from /home/niroj/Downloads/Untitled Folder 2/FirstScreen/app/src/main/AndroidManifest.xml:6:9-35
	android:icon
		ADDED from /home/niroj/Downloads/Untitled Folder 2/FirstScreen/app/src/main/AndroidManifest.xml:7:9-43
	android:theme
		ADDED from /home/niroj/Downloads/Untitled Folder 2/FirstScreen/app/src/main/AndroidManifest.xml:10:9-40
activity#com.example.niroj.firstscreen.MainActivity
ADDED from /home/niroj/Downloads/Untitled Folder 2/FirstScreen/app/src/main/AndroidManifest.xml:11:9-17:20
	android:name
		ADDED from /home/niroj/Downloads/Untitled Folder 2/FirstScreen/app/src/main/AndroidManifest.xml:11:19-47
intent-filter#android.intent.action.MAIN+android.intent.category.LAUNCHER
ADDED from /home/niroj/Downloads/Untitled Folder 2/FirstScreen/app/src/main/AndroidManifest.xml:12:13-16:29
action#android.intent.action.MAIN
ADDED from /home/niroj/Downloads/Untitled Folder 2/FirstScreen/app/src/main/AndroidManifest.xml:13:17-69
	android:name
		ADDED from /home/niroj/Downloads/Untitled Folder 2/FirstScreen/app/src/main/AndroidManifest.xml:13:25-66
category#android.intent.category.LAUNCHER
ADDED from /home/niroj/Downloads/Untitled Folder 2/FirstScreen/app/src/main/AndroidManifest.xml:15:17-77
	android:name
		ADDED from /home/niroj/Downloads/Untitled Folder 2/FirstScreen/app/src/main/AndroidManifest.xml:15:27-74
activity#com.example.niroj.firstscreen.BuilderPage
ADDED from /home/niroj/Downloads/Untitled Folder 2/FirstScreen/app/src/main/AndroidManifest.xml:18:9-58
	android:name
		ADDED from /home/niroj/Downloads/Untitled Folder 2/FirstScreen/app/src/main/AndroidManifest.xml:18:19-46
activity#com.example.niroj.firstscreen.MyEditor
ADDED from /home/niroj/Downloads/Untitled Folder 2/FirstScreen/app/src/main/AndroidManifest.xml:19:9-55
	android:name
		ADDED from /home/niroj/Downloads/Untitled Folder 2/FirstScreen/app/src/main/AndroidManifest.xml:19:19-43
uses-sdk
INJECTED from /home/niroj/Downloads/Untitled Folder 2/FirstScreen/app/src/main/AndroidManifest.xml reason: use-sdk injection requested
MERGED from [com.android.support:design:23.4.0] /home/niroj/Downloads/Untitled Folder 2/FirstScreen/app/build/intermediates/exploded-aar/com.android.support/design/23.4.0/AndroidManifest.xml:20:5-43
MERGED from [com.android.support:recyclerview-v7:23.4.0] /home/niroj/Downloads/Untitled Folder 2/FirstScreen/app/build/intermediates/exploded-aar/com.android.support/recyclerview-v7/23.4.0/AndroidManifest.xml:20:5-43
MERGED from [com.android.support:support-v4:23.4.0] /home/niroj/Downloads/Untitled Folder 2/FirstScreen/app/build/intermediates/exploded-aar/com.android.support/support-v4/23.4.0/AndroidManifest.xml:20:5-43
MERGED from [com.android.support:appcompat-v7:23.4.0] /home/niroj/Downloads/Untitled Folder 2/FirstScreen/app/build/intermediates/exploded-aar/com.android.support/appcompat-v7/23.4.0/AndroidManifest.xml:21:5-23:78
MERGED from [com.android.support:animated-vector-drawable:23.4.0] /home/niroj/Downloads/Untitled Folder 2/FirstScreen/app/build/intermediates/exploded-aar/com.android.support/animated-vector-drawable/23.4.0/AndroidManifest.xml:5:5-44
MERGED from [com.android.support:support-vector-drawable:23.4.0] /home/niroj/Downloads/Untitled Folder 2/FirstScreen/app/build/intermediates/exploded-aar/com.android.support/support-vector-drawable/23.4.0/AndroidManifest.xml:5:5-43
MERGED from [com.android.support:support-v4:23.4.0] /home/niroj/Downloads/Untitled Folder 2/FirstScreen/app/build/intermediates/exploded-aar/com.android.support/support-v4/23.4.0/AndroidManifest.xml:20:5-43
MERGED from [com.android.support:support-v4:23.4.0] /home/niroj/Downloads/Untitled Folder 2/FirstScreen/app/build/intermediates/exploded-aar/com.android.support/support-v4/23.4.0/AndroidManifest.xml:20:5-43
MERGED from [com.android.support:support-vector-drawable:23.4.0] /home/niroj/Downloads/Untitled Folder 2/FirstScreen/app/build/intermediates/exploded-aar/com.android.support/support-vector-drawable/23.4.0/AndroidManifest.xml:5:5-43
MERGED from [com.android.support:support-v4:23.4.0] /home/niroj/Downloads/Untitled Folder 2/FirstScreen/app/build/intermediates/exploded-aar/com.android.support/support-v4/23.4.0/AndroidManifest.xml:20:5-43
MERGED from [com.android.support:support-v4:23.4.0] /home/niroj/Downloads/Untitled Folder 2/FirstScreen/app/build/intermediates/exploded-aar/com.android.support/support-v4/23.4.0/AndroidManifest.xml:20:5-43
MERGED from [com.android.support:appcompat-v7:23.4.0] /home/niroj/Downloads/Untitled Folder 2/FirstScreen/app/build/intermediates/exploded-aar/com.android.support/appcompat-v7/23.4.0/AndroidManifest.xml:21:5-23:78
MERGED from [com.android.support:animated-vector-drawable:23.4.0] /home/niroj/Downloads/Untitled Folder 2/FirstScreen/app/build/intermediates/exploded-aar/com.android.support/animated-vector-drawable/23.4.0/AndroidManifest.xml:5:5-44
MERGED from [com.android.support:support-vector-drawable:23.4.0] /home/niroj/Downloads/Untitled Folder 2/FirstScreen/app/build/intermediates/exploded-aar/com.android.support/support-vector-drawable/23.4.0/AndroidManifest.xml:5:5-43
MERGED from [com.android.support:support-v4:23.4.0] /home/niroj/Downloads/Untitled Folder 2/FirstScreen/app/build/intermediates/exploded-aar/com.android.support/support-v4/23.4.0/AndroidManifest.xml:20:5-43
MERGED from [com.android.support:support-v4:23.4.0] /home/niroj/Downloads/Untitled Folder 2/FirstScreen/app/build/intermediates/exploded-aar/com.android.support/support-v4/23.4.0/AndroidManifest.xml:20:5-43
MERGED from [com.android.support:support-vector-drawable:23.4.0] /home/niroj/Downloads/Untitled Folder 2/FirstScreen/app/build/intermediates/exploded-aar/com.android.support/support-vector-drawable/23.4.0/AndroidManifest.xml:5:5-43
MERGED from [com.android.support:support-v4:23.4.0] /home/niroj/Downloads/Untitled Folder 2/FirstScreen/app/build/intermediates/exploded-aar/com.android.support/support-v4/23.4.0/AndroidManifest.xml:20:5-43
MERGED from [com.android.support:recyclerview-v7:23.4.0] /home/niroj/Downloads/Untitled Folder 2/FirstScreen/app/build/intermediates/exploded-aar/com.android.support/recyclerview-v7/23.4.0/AndroidManifest.xml:20:5-43
MERGED from [com.android.support:support-v4:23.4.0] /home/niroj/Downloads/Untitled Folder 2/FirstScreen/app/build/intermediates/exploded-aar/com.android.support/support-v4/23.4.0/AndroidManifest.xml:20:5-43
MERGED from [com.jakewharton:butterknife:8.2.1] /home/niroj/Downloads/Untitled Folder 2/FirstScreen/app/build/intermediates/exploded-aar/com.jakewharton/butterknife/8.2.1/AndroidManifest.xml:5:5-43
MERGED from [com.android.support:cardview-v7:23.1.1] /home/niroj/Downloads/Untitled Folder 2/FirstScreen/app/build/intermediates/exploded-aar/com.android.support/cardview-v7/23.1.1/AndroidManifest.xml:20:5-43
	tools:overrideLibrary
		ADDED from [com.android.support:appcompat-v7:23.4.0] /home/niroj/Downloads/Untitled Folder 2/FirstScreen/app/build/intermediates/exploded-aar/com.android.support/appcompat-v7/23.4.0/AndroidManifest.xml:23:9-75
	android:targetSdkVersion
		INJECTED from /home/niroj/Downloads/Untitled Folder 2/FirstScreen/app/src/main/AndroidManifest.xml
		INJECTED from /home/niroj/Downloads/Untitled Folder 2/FirstScreen/app/src/main/AndroidManifest.xml
	android:minSdkVersion
		INJECTED from /home/niroj/Downloads/Untitled Folder 2/FirstScreen/app/src/main/AndroidManifest.xml
		INJECTED from /home/niroj/Downloads/Untitled Folder 2/FirstScreen/app/src/main/AndroidManifest.xml
